{
  "type": "postgres",
  "host": "localhost",
  "port": 5432,
  "username": "postgres",
  "password": "md5dasenha",
  "database": "info_database",
  "entities": ["src/entity/**/*.ts"],
  "migrations": ["src/migration/**/*.ts"]
}
